{
  "project_info": {
    "project_number": "871378497866",
    "firebase_url": "https://example-firebase-c555b.firebaseio.com",
    "project_id": "example-firebase-c555b",
    "storage_bucket": "example-firebase-c555b.appspot.com"
  },
  "client": [
    {
      "client_info": {
        "mobilesdk_app_id": "1:871378497866:android:911fa5f35a814e6b",
        "android_client_info": {
          "package_name": "hr.ferit.bruno.example_firebase"
        }
      },
      "oauth_client": [
        {
          "client_id": "871378497866-94ndbtmjs41q97p18iuk8cfnro130pde.apps.googleusercontent.com",
          "client_type": 3
        }
      ],
      "api_key": [
        {
          "current_key": "AIzaSyCWiAjKjnv4XTwQKHUYyoPTlRMVlw9XE_M"
        }
      ],
      "services": {
        "analytics_service": {
          "status": 1
        },
        "appinvite_service": {
          "status": 1,
          "other_platform_oauth_client": []
        },
        "ads_service": {
          "status": 2
        }
      }
    }
  ],
  "configuration_version": "1"
}